steam:1100001132c100b
license:d2feb4f7ec7ef10167e288cd7c38eb720c14df07
ip:92.157.154.11
steam:110000108186b6f
license:8ea38a47e4dad67052dfde0d4082852e5cc72e17
ip:85.190.75.67
steam:110000135c3f337
license:8d06f16bf90d229ae5e7414ad471ba9f60084451
steam:110000111732e2f
license:3ae440372c88d3cfdbd8e517a8d3059784ed5cf3steam:11000010a4d3fe5
license:2064504fef20cd453353e5859a50cc009ca5479f
discord:333010929958518786
ip:2.4.233.147
steam:1100001171a0954
license:5ec53e31107986a6e984a62b7eb7b0ad88d91a3a
discord:347136325952208906
ip:78.207.54.27
steam:110000134ddd572
license:34caa3d74fcff4f88eb5b1fbcd88f499153f8654
discord:391255149412089857
ip:86.193.188.59
steam:110000118d558ea
license:48fada321b7b8ffd71513c2b83cfd1714034a6dc
live:1055518737676575
discord:542737604303388673
ip:176.184.8.146
steam:11000010bd87033
license:3d1c5a3d17d9fdf32ddff4a51ecd6ebb1bd6e1f3
live:844425443057100
discord:368780127569575954
ip:78.222.38.74
